172.19.0.1 - - [16/Jul/2020:08:57:32 +0000] "GET /sample1/ HTTP/1.1" 404 47 "-" "Mozilla/5.0 (Macintosh; Intel Mac OS X 10_15_4) AppleWebKit/537.36 (KHTML, like Gecko) Chrome/86.0.4197.0 Safari/537.36"
172.19.0.1 - - [16/Jul/2020:08:57:46 +0000] "GET /sample1/ HTTP/1.1" 404 47 "-" "Mozilla/5.0 (Macintosh; Intel Mac OS X 10_15_4) AppleWebKit/537.36 (KHTML, like Gecko) Chrome/86.0.4197.0 Safari/537.36"
172.19.0.1 - - [16/Jul/2020:09:04:45 +0000] "GET /sample1/about.html HTTP/1.1" 200 1599 "-" "Mozilla/5.0 (Macintosh; Intel Mac OS X 10_15_4) AppleWebKit/537.36 (KHTML, like Gecko) Chrome/86.0.4197.0 Safari/537.36"
172.19.0.1 - - [16/Jul/2020:09:04:45 +0000] "GET /sample1/assets/css/bootstrap.min.css HTTP/1.1" 200 155758 "http://localhost:8081/sample1/about.html" "Mozilla/5.0 (Macintosh; Intel Mac OS X 10_15_4) AppleWebKit/537.36 (KHTML, like Gecko) Chrome/86.0.4197.0 Safari/537.36"
172.19.0.1 - - [16/Jul/2020:09:04:45 +0000] "GET /sample1/assets/css/LineIcons.css HTTP/1.1" 200 31420 "http://localhost:8081/sample1/about.html" "Mozilla/5.0 (Macintosh; Intel Mac OS X 10_15_4) AppleWebKit/537.36 (KHTML, like Gecko) Chrome/86.0.4197.0 Safari/537.36"
172.19.0.1 - - [16/Jul/2020:09:04:45 +0000] "GET /sample1/assets/css/style.css HTTP/1.1" 200 135311 "http://localhost:8081/sample1/about.html" "Mozilla/5.0 (Macintosh; Intel Mac OS X 10_15_4) AppleWebKit/537.36 (KHTML, like Gecko) Chrome/86.0.4197.0 Safari/537.36"
172.19.0.1 - - [16/Jul/2020:09:04:45 +0000] "GET /sample1/assets/images/about/icon-2.png HTTP/1.1" 200 4916 "http://localhost:8081/sample1/about.html" "Mozilla/5.0 (Macintosh; Intel Mac OS X 10_15_4) AppleWebKit/537.36 (KHTML, like Gecko) Chrome/86.0.4197.0 Safari/537.36"
172.19.0.1 - - [16/Jul/2020:09:04:45 +0000] "GET /sample1/assets/js/vendor/jquery-1.12.4.min.js HTTP/1.1" 200 97163 "http://localhost:8081/sample1/about.html" "Mozilla/5.0 (Macintosh; Intel Mac OS X 10_15_4) AppleWebKit/537.36 (KHTML, like Gecko) Chrome/86.0.4197.0 Safari/537.36"
172.19.0.1 - - [16/Jul/2020:09:04:45 +0000] "GET /sample1/assets/js/popper.min.js HTTP/1.1" 200 21004 "http://localhost:8081/sample1/about.html" "Mozilla/5.0 (Macintosh; Intel Mac OS X 10_15_4) AppleWebKit/537.36 (KHTML, like Gecko) Chrome/86.0.4197.0 Safari/537.36"
172.19.0.1 - - [16/Jul/2020:09:04:45 +0000] "GET /sample1/assets/js/imagesloaded.pkgd.min.js HTTP/1.1" 200 5594 "http://localhost:8081/sample1/about.html" "Mozilla/5.0 (Macintosh; Intel Mac OS X 10_15_4) AppleWebKit/537.36 (KHTML, like Gecko) Chrome/86.0.4197.0 Safari/537.36"
172.19.0.1 - - [16/Jul/2020:09:04:45 +0000] "GET /sample1/assets/js/jquery.appear.min.js HTTP/1.1" 200 1266 "http://localhost:8081/sample1/about.html" "Mozilla/5.0 (Macintosh; Intel Mac OS X 10_15_4) AppleWebKit/537.36 (KHTML, like Gecko) Chrome/86.0.4197.0 Safari/537.36"
172.19.0.1 - - [16/Jul/2020:09:04:45 +0000] "GET /sample1/assets/js/main.js HTTP/1.1" 200 1124 "http://localhost:8081/sample1/about.html" "Mozilla/5.0 (Macintosh; Intel Mac OS X 10_15_4) AppleWebKit/537.36 (KHTML, like Gecko) Chrome/86.0.4197.0 Safari/537.36"
172.19.0.1 - - [16/Jul/2020:09:04:45 +0000] "GET /sample1/assets/images/about/icon-3.png HTTP/1.1" 200 3970 "http://localhost:8081/sample1/about.html" "Mozilla/5.0 (Macintosh; Intel Mac OS X 10_15_4) AppleWebKit/537.36 (KHTML, like Gecko) Chrome/86.0.4197.0 Safari/537.36"
172.19.0.1 - - [16/Jul/2020:09:04:45 +0000] "GET /sample1/assets/images/about/features-1.png HTTP/1.1" 200 13304 "http://localhost:8081/sample1/about.html" "Mozilla/5.0 (Macintosh; Intel Mac OS X 10_15_4) AppleWebKit/537.36 (KHTML, like Gecko) Chrome/86.0.4197.0 Safari/537.36"
172.19.0.1 - - [16/Jul/2020:09:04:45 +0000] "GET /sample1/assets/images/about/features-2.png HTTP/1.1" 200 11166 "http://localhost:8081/sample1/about.html" "Mozilla/5.0 (Macintosh; Intel Mac OS X 10_15_4) AppleWebKit/537.36 (KHTML, like Gecko) Chrome/86.0.4197.0 Safari/537.36"
172.19.0.1 - - [16/Jul/2020:09:04:45 +0000] "GET /sample1/assets/css/default.css HTTP/1.1" 200 11304 "http://localhost:8081/sample1/about.html" "Mozilla/5.0 (Macintosh; Intel Mac OS X 10_15_4) AppleWebKit/537.36 (KHTML, like Gecko) Chrome/86.0.4197.0 Safari/537.36"
172.19.0.1 - - [16/Jul/2020:09:04:45 +0000] "GET /sample1/assets/js/bootstrap.min.js HTTP/1.1" 200 58072 "http://localhost:8081/sample1/about.html" "Mozilla/5.0 (Macintosh; Intel Mac OS X 10_15_4) AppleWebKit/537.36 (KHTML, like Gecko) Chrome/86.0.4197.0 Safari/537.36"
172.19.0.1 - - [16/Jul/2020:09:04:45 +0000] "GET /sample1/assets/images/about/icon-1.png HTTP/1.1" 200 5466 "http://localhost:8081/sample1/about.html" "Mozilla/5.0 (Macintosh; Intel Mac OS X 10_15_4) AppleWebKit/537.36 (KHTML, like Gecko) Chrome/86.0.4197.0 Safari/537.36"
172.19.0.1 - - [16/Jul/2020:09:04:45 +0000] "GET /sample1/assets/js/vendor/modernizr-3.6.0.min.js HTTP/1.1" 200 8636 "http://localhost:8081/sample1/about.html" "Mozilla/5.0 (Macintosh; Intel Mac OS X 10_15_4) AppleWebKit/537.36 (KHTML, like Gecko) Chrome/86.0.4197.0 Safari/537.36"
172.19.0.1 - - [16/Jul/2020:09:04:46 +0000] "GET /sample1/assets/images/favicon.ico HTTP/1.1" 200 34494 "http://localhost:8081/sample1/about.html" "Mozilla/5.0 (Macintosh; Intel Mac OS X 10_15_4) AppleWebKit/537.36 (KHTML, like Gecko) Chrome/86.0.4197.0 Safari/537.36"
